1547467398836	mozrunner::runner	INFO	Running command: "C:\\Program Files\\Mozilla Firefox\\firefox.exe" "-marionette" "-foreground" "-no-remote" "-profile" "C:\\Users\\i331722\\AppData\\Local\\Temp\\rust_mozprofile.Tn9Urve4tTX5"
1547467439693	mozrunner::runner	INFO	Running command: "C:\\Program Files\\Mozilla Firefox\\firefox.exe" "-marionette" "-foreground" "-no-remote" "-profile" "C:\\Users\\i331722\\AppData\\Local\\Temp\\rust_mozprofile.8gA6etsQWXla"
1547467440446	Marionette	DEBUG	Received observer notification profile-after-change
1547467440540	Marionette	DEBUG	Received observer notification toplevel-window-ready
1547467440580	Marionette	DEBUG	Received observer notification command-line-startup
1547467440580	Marionette	DEBUG	Received observer notification nsPref:changed
1547467440581	Marionette	DEBUG	Init aborted (running=false, enabled=true, finalUIStartup=false)
1547467440831	Marionette	DEBUG	Received observer notification toplevel-window-ready
1547467442440	Marionette	DEBUG	Received observer notification sessionstore-windows-restored
1547467442440	Marionette	DEBUG	Waiting for delayed startup...
1547467442552	Marionette	DEBUG	Setting recommended pref app.update.auto to false
1547467442553	Marionette	DEBUG	Setting recommended pref security.turn_off_all_security_so_that_viruses_can_take_over_this_computer to true
1547467442553	Marionette	DEBUG	Setting recommended pref apz.content_response_timeout to 60000
1547467442554	Marionette	DEBUG	Setting recommended pref browser.download.panel.shown to true
1547467442554	Marionette	DEBUG	Setting recommended pref browser.pagethumbnails.capturing_disabled to true
1547467442555	Marionette	DEBUG	Setting recommended pref browser.search.update to false
1547467442555	Marionette	DEBUG	Setting recommended pref toolkit.cosmeticAnimations.enabled to false
1547467442555	Marionette	DEBUG	Setting recommended pref browser.tabs.disableBackgroundZombification to false
1547467442556	Marionette	DEBUG	Setting recommended pref browser.tabs.warnOnCloseOtherTabs to false
1547467442556	Marionette	DEBUG	Setting recommended pref browser.tabs.warnOnOpen to false
1547467442556	Marionette	DEBUG	Setting recommended pref browser.usedOnWindows10.introURL to 
1547467442556	Marionette	DEBUG	Setting recommended pref browser.urlbar.suggest.searches to false
1547467442558	Marionette	DEBUG	Setting recommended pref datareporting.policy.dataSubmissionPolicyAccepted to false
1547467442558	Marionette	DEBUG	Setting recommended pref dom.disable_beforeunload to true
1547467442558	Marionette	DEBUG	Setting recommended pref dom.disable_open_during_load to false
1547467442559	Marionette	DEBUG	Setting recommended pref dom.file.createInChild to true
1547467442559	Marionette	DEBUG	Setting recommended pref dom.max_chrome_script_run_time to 0
1547467442560	Marionette	DEBUG	Setting recommended pref dom.max_script_run_time to 0
1547467442561	Marionette	DEBUG	Setting recommended pref extensions.getAddons.cache.enabled to false
1547467442561	Marionette	DEBUG	Setting recommended pref extensions.webservice.discoverURL to http://%(server)s/dummy/discoveryURL
1547467442561	Marionette	DEBUG	Setting recommended pref network.http.prompt-temp-redirect to false
1547467442561	Marionette	DEBUG	Setting recommended pref network.http.speculative-parallel-limit to 0
1547467442562	Marionette	DEBUG	Setting recommended pref security.fileuri.strict_origin_policy to false
1547467442563	Marionette	DEBUG	Setting recommended pref security.notification_enable_delay to 0
1547467442563	Marionette	DEBUG	Setting recommended pref signon.autofillForms to false
1547467442566	Marionette	DEBUG	Setting recommended pref signon.rememberSignons to false
1547467442639	Marionette	INFO	Listening on port 56963
1547467442640	Marionette	DEBUG	Remote service is active
1547467443059	Marionette	DEBUG	Accepted connection 0 from 127.0.0.1:56979
1547467443062	Marionette	TRACE	0 -> [0,1,"WebDriver:NewSession",{"acceptInsecureCerts":true,"browserName":"firefox"}]
1547467443063	Marionette	WARN	TLS certificate errors will be ignored for this session
1547467443130	Marionette	DEBUG	[6442450945] Frame script loaded
1547467443132	Marionette	DEBUG	[6442450945] Frame script registered
1547467443137	Marionette	TRACE	0 <- [1,1,null,{"sessionId":"77d36fe4-fe49-4a79-9f0a-fae79b4d24c7","capabilities":{"browserName":"firefox","browserVersion":"63.0. ... AppData\\Local\\Temp\\rust_mozprofile.8gA6etsQWXla","moz:useNonSpecCompliantPointerOrigin":false,"moz:webdriverClick":true}}]
1547467443147	Marionette	TRACE	0 -> [0,2,"WebDriver:Navigate",{"url":"https://www.pexels.com/search/texture/"}]
1547467443155	Marionette	DEBUG	[6442450945] Received DOM event beforeunload for about:blank
1547467459472	Marionette	DEBUG	[6442450945] Received DOM event pagehide for about:blank
1547467460296	Marionette	DEBUG	[6442450945] Received DOM event DOMContentLoaded for https://www.pexels.com/search/texture/
1547467462499	Marionette	DEBUG	[6442450945] Received observer notification outer-window-destroyed
1547467462636	Marionette	DEBUG	[6442450945] Received DOM event pageshow for https://www.pexels.com/search/texture/
1547467462638	Marionette	TRACE	0 <- [1,2,null,{"value":null}]
1547467462646	Marionette	TRACE	0 -> [0,3,"WebDriver:GetTitle",{}]
1547467462646	Marionette	TRACE	0 <- [1,3,null,{"value":"1000+ Beautiful Texture Photos · Pexels · Free Stock Photos"}]
1547467468568	Marionette	DEBUG	Closed connection 0
1547467468836	Marionette	DEBUG	Received observer notification xpcom-will-shutdown
1547467468837	Marionette	DEBUG	Resetting recommended pref app.update.auto
1547467468839	Marionette	DEBUG	Resetting recommended pref security.turn_off_all_security_so_that_viruses_can_take_over_this_computer
1547467468839	Marionette	DEBUG	Resetting recommended pref apz.content_response_timeout
1547467468839	Marionette	DEBUG	Resetting recommended pref browser.download.panel.shown
1547467468840	Marionette	DEBUG	Resetting recommended pref browser.pagethumbnails.capturing_disabled
1547467468840	Marionette	DEBUG	Resetting recommended pref browser.search.update
1547467468840	Marionette	DEBUG	Resetting recommended pref toolkit.cosmeticAnimations.enabled
1547467468842	Marionette	DEBUG	Resetting recommended pref browser.tabs.disableBackgroundZombification
1547467468842	Marionette	DEBUG	Resetting recommended pref browser.tabs.warnOnCloseOtherTabs
1547467468843	Marionette	DEBUG	Resetting recommended pref browser.tabs.warnOnOpen
1547467468843	Marionette	DEBUG	Resetting recommended pref browser.usedOnWindows10.introURL
1547467468843	Marionette	DEBUG	Resetting recommended pref browser.urlbar.suggest.searches
1547467468845	Marionette	DEBUG	Resetting recommended pref datareporting.policy.dataSubmissionPolicyAccepted
1547467468845	Marionette	DEBUG	Resetting recommended pref dom.disable_beforeunload
1547467468845	Marionette	DEBUG	Resetting recommended pref dom.disable_open_during_load
1547467468845	Marionette	DEBUG	Resetting recommended pref dom.file.createInChild
1547467468845	Marionette	DEBUG	Resetting recommended pref dom.max_chrome_script_run_time
1547467468846	Marionette	DEBUG	Resetting recommended pref dom.max_script_run_time
1547467468848	Marionette	DEBUG	Resetting recommended pref extensions.getAddons.cache.enabled
1547467468849	Marionette	DEBUG	Resetting recommended pref extensions.webservice.discoverURL
1547467468849	Marionette	DEBUG	Resetting recommended pref network.http.prompt-temp-redirect
1547467468849	Marionette	DEBUG	Resetting recommended pref network.http.speculative-parallel-limit
1547467468849	Marionette	DEBUG	Resetting recommended pref security.fileuri.strict_origin_policy
1547467468849	Marionette	DEBUG	Resetting recommended pref security.notification_enable_delay
1547467468850	Marionette	DEBUG	Resetting recommended pref signon.autofillForms
1547467468850	Marionette	DEBUG	Resetting recommended pref signon.rememberSignons
1547467468850	Marionette	INFO	Stopped listening on port 56963
1547467468850	Marionette	DEBUG	Remote service is inactive

###!!! [Child][RunMessage] Error: Channel closing: too late to send/recv, messages will be lost

1547467481751	mozrunner::runner	INFO	Running command: "C:\\Program Files\\Mozilla Firefox\\firefox.exe" "-marionette" "-foreground" "-no-remote" "-profile" "C:\\Users\\i331722\\AppData\\Local\\Temp\\rust_mozprofile.VuRCw4daQPuq"
1547467482589	Marionette	DEBUG	Received observer notification profile-after-change
1547467482680	Marionette	DEBUG	Received observer notification toplevel-window-ready
1547467482717	Marionette	DEBUG	Received observer notification command-line-startup
1547467482717	Marionette	DEBUG	Received observer notification nsPref:changed
1547467482717	Marionette	DEBUG	Init aborted (running=false, enabled=true, finalUIStartup=false)
1547467482933	Marionette	DEBUG	Received observer notification toplevel-window-ready
1547467484345	Marionette	DEBUG	Received observer notification sessionstore-windows-restored
1547467484346	Marionette	DEBUG	Waiting for delayed startup...
1547467484475	Marionette	DEBUG	Setting recommended pref app.update.auto to false
1547467484476	Marionette	DEBUG	Setting recommended pref security.turn_off_all_security_so_that_viruses_can_take_over_this_computer to true
1547467484476	Marionette	DEBUG	Setting recommended pref apz.content_response_timeout to 60000
1547467484477	Marionette	DEBUG	Setting recommended pref browser.download.panel.shown to true
1547467484477	Marionette	DEBUG	Setting recommended pref browser.pagethumbnails.capturing_disabled to true
1547467484478	Marionette	DEBUG	Setting recommended pref browser.search.update to false
1547467484478	Marionette	DEBUG	Setting recommended pref toolkit.cosmeticAnimations.enabled to false
1547467484479	Marionette	DEBUG	Setting recommended pref browser.tabs.disableBackgroundZombification to false
1547467484479	Marionette	DEBUG	Setting recommended pref browser.tabs.warnOnCloseOtherTabs to false
1547467484479	Marionette	DEBUG	Setting recommended pref browser.tabs.warnOnOpen to false
1547467484479	Marionette	DEBUG	Setting recommended pref browser.usedOnWindows10.introURL to 
1547467484480	Marionette	DEBUG	Setting recommended pref browser.urlbar.suggest.searches to false
1547467484480	Marionette	DEBUG	Setting recommended pref datareporting.policy.dataSubmissionPolicyAccepted to false
1547467484480	Marionette	DEBUG	Setting recommended pref dom.disable_beforeunload to true
1547467484481	Marionette	DEBUG	Setting recommended pref dom.disable_open_during_load to false
1547467484481	Marionette	DEBUG	Setting recommended pref dom.file.createInChild to true
1547467484481	Marionette	DEBUG	Setting recommended pref dom.max_chrome_script_run_time to 0
1547467484481	Marionette	DEBUG	Setting recommended pref dom.max_script_run_time to 0
1547467484481	Marionette	DEBUG	Setting recommended pref extensions.getAddons.cache.enabled to false
1547467484481	Marionette	DEBUG	Setting recommended pref extensions.webservice.discoverURL to http://%(server)s/dummy/discoveryURL
1547467484481	Marionette	DEBUG	Setting recommended pref network.http.prompt-temp-redirect to false
1547467484481	Marionette	DEBUG	Setting recommended pref network.http.speculative-parallel-limit to 0
1547467484482	Marionette	DEBUG	Setting recommended pref security.fileuri.strict_origin_policy to false
1547467484482	Marionette	DEBUG	Setting recommended pref security.notification_enable_delay to 0
1547467484482	Marionette	DEBUG	Setting recommended pref signon.autofillForms to false
1547467484482	Marionette	DEBUG	Setting recommended pref signon.rememberSignons to false
1547467484558	Marionette	INFO	Listening on port 57107
1547467484559	Marionette	DEBUG	Remote service is active
1547467484577	Marionette	DEBUG	Accepted connection 0 from 127.0.0.1:57119
1547467484583	Marionette	TRACE	0 -> [0,1,"WebDriver:NewSession",{"acceptInsecureCerts":true,"browserName":"firefox"}]
1547467484583	Marionette	WARN	TLS certificate errors will be ignored for this session
1547467484962	Marionette	DEBUG	[6442450945] Frame script loaded
1547467484966	Marionette	DEBUG	[6442450945] Frame script registered
1547467484973	Marionette	TRACE	0 <- [1,1,null,{"sessionId":"3b10ecb6-8153-41b8-84aa-7cbc34b5da63","capabilities":{"browserName":"firefox","browserVersion":"63.0. ... AppData\\Local\\Temp\\rust_mozprofile.VuRCw4daQPuq","moz:useNonSpecCompliantPointerOrigin":false,"moz:webdriverClick":true}}]
1547467484982	Marionette	TRACE	0 -> [0,2,"WebDriver:Navigate",{"url":"https://www.pexels.com/search/texture/"}]
1547467485009	Marionette	DEBUG	[6442450945] Received DOM event beforeunload for about:blank
1547467503056	Marionette	DEBUG	[6442450945] Received DOM event pagehide for about:blank
1547467503057	Marionette	DEBUG	[6442450945] Received DOM event unload for about:blank
1547467503936	Marionette	DEBUG	[6442450945] Received DOM event DOMContentLoaded for https://www.pexels.com/search/texture/
console.error: BroadcastService: 
  receivedBroadcastMessage: handler for
  remote-settings/monitor_changes
  threw error:
  Message: Error: Polling for changes failed: NetworkError when attempting to fetch resource..
  Stack:
    remoteSettingsFunction/remoteSettings.pollChanges@resource://services-settings/remote-settings.js:721:13

1547467505724	Marionette	DEBUG	[6442450945] Received observer notification outer-window-destroyed
1547467505936	Marionette	DEBUG	[6442450945] Received DOM event pageshow for https://www.pexels.com/search/texture/
1547467505938	Marionette	TRACE	0 <- [1,2,null,{"value":null}]
1547467526292	Marionette	DEBUG	Closed connection 0
1547467526715	Marionette	DEBUG	Received observer notification xpcom-will-shutdown
1547467526715	Marionette	DEBUG	Resetting recommended pref app.update.auto
1547467526717	Marionette	DEBUG	Resetting recommended pref security.turn_off_all_security_so_that_viruses_can_take_over_this_computer
1547467526717	Marionette	DEBUG	Resetting recommended pref apz.content_response_timeout
1547467526718	Marionette	DEBUG	Resetting recommended pref browser.download.panel.shown
1547467526718	Marionette	DEBUG	Resetting recommended pref browser.pagethumbnails.capturing_disabled
1547467526718	Marionette	DEBUG	Resetting recommended pref browser.search.update
1547467526718	Marionette	DEBUG	Resetting recommended pref toolkit.cosmeticAnimations.enabled
1547467526720	Marionette	DEBUG	Resetting recommended pref browser.tabs.disableBackgroundZombification
1547467526720	Marionette	DEBUG	Resetting recommended pref browser.tabs.warnOnCloseOtherTabs
1547467526721	Marionette	DEBUG	Resetting recommended pref browser.tabs.warnOnOpen
1547467526721	Marionette	DEBUG	Resetting recommended pref browser.usedOnWindows10.introURL
1547467526721	Marionette	DEBUG	Resetting recommended pref browser.urlbar.suggest.searches
1547467526723	Marionette	DEBUG	Resetting recommended pref datareporting.policy.dataSubmissionPolicyAccepted
1547467526724	Marionette	DEBUG	Resetting recommended pref dom.disable_beforeunload
1547467526725	Marionette	DEBUG	Resetting recommended pref dom.disable_open_during_load
1547467526726	Marionette	DEBUG	Resetting recommended pref dom.file.createInChild
1547467526727	Marionette	DEBUG	Resetting recommended pref dom.max_chrome_script_run_time
1547467526728	Marionette	DEBUG	Resetting recommended pref dom.max_script_run_time
1547467526729	Marionette	DEBUG	Resetting recommended pref extensions.getAddons.cache.enabled
1547467526730	Marionette	DEBUG	Resetting recommended pref extensions.webservice.discoverURL
1547467526730	Marionette	DEBUG	Resetting recommended pref network.http.prompt-temp-redirect
1547467526730	Marionette	DEBUG	Resetting recommended pref network.http.speculative-parallel-limit
1547467526730	Marionette	DEBUG	Resetting recommended pref security.fileuri.strict_origin_policy
1547467526730	Marionette	DEBUG	Resetting recommended pref security.notification_enable_delay
1547467526730	Marionette	DEBUG	Resetting recommended pref signon.autofillForms
1547467526731	Marionette	DEBUG	Resetting recommended pref signon.rememberSignons
1547467526731	Marionette	INFO	Stopped listening on port 57107
1547467526731	Marionette	DEBUG	Remote service is inactive

###!!! [Child][RunMessage] Error: Channel closing: too late to send/recv, messages will be lost

1547467586444	mozrunner::runner	INFO	Running command: "C:\\Program Files\\Mozilla Firefox\\firefox.exe" "-marionette" "-foreground" "-no-remote" "-profile" "C:\\Users\\i331722\\AppData\\Local\\Temp\\rust_mozprofile.zphm23zCf0Vv"
1547467587275	Marionette	DEBUG	Received observer notification profile-after-change
1547467587389	Marionette	DEBUG	Received observer notification toplevel-window-ready
1547467587427	Marionette	DEBUG	Received observer notification command-line-startup
1547467587427	Marionette	DEBUG	Received observer notification nsPref:changed
1547467587427	Marionette	DEBUG	Init aborted (running=false, enabled=true, finalUIStartup=false)
1547467587645	Marionette	DEBUG	Received observer notification toplevel-window-ready
1547467589100	Marionette	DEBUG	Received observer notification sessionstore-windows-restored
1547467589101	Marionette	DEBUG	Waiting for delayed startup...
1547467589216	Marionette	DEBUG	Setting recommended pref app.update.auto to false
1547467589216	Marionette	DEBUG	Setting recommended pref security.turn_off_all_security_so_that_viruses_can_take_over_this_computer to true
1547467589216	Marionette	DEBUG	Setting recommended pref apz.content_response_timeout to 60000
1547467589217	Marionette	DEBUG	Setting recommended pref browser.download.panel.shown to true
1547467589217	Marionette	DEBUG	Setting recommended pref browser.pagethumbnails.capturing_disabled to true
1547467589218	Marionette	DEBUG	Setting recommended pref browser.search.update to false
1547467589218	Marionette	DEBUG	Setting recommended pref toolkit.cosmeticAnimations.enabled to false
1547467589218	Marionette	DEBUG	Setting recommended pref browser.tabs.disableBackgroundZombification to false
1547467589219	Marionette	DEBUG	Setting recommended pref browser.tabs.warnOnCloseOtherTabs to false
1547467589219	Marionette	DEBUG	Setting recommended pref browser.tabs.warnOnOpen to false
1547467589219	Marionette	DEBUG	Setting recommended pref browser.usedOnWindows10.introURL to 
1547467589220	Marionette	DEBUG	Setting recommended pref browser.urlbar.suggest.searches to false
1547467589220	Marionette	DEBUG	Setting recommended pref datareporting.policy.dataSubmissionPolicyAccepted to false
1547467589220	Marionette	DEBUG	Setting recommended pref dom.disable_beforeunload to true
1547467589221	Marionette	DEBUG	Setting recommended pref dom.disable_open_during_load to false
1547467589221	Marionette	DEBUG	Setting recommended pref dom.file.createInChild to true
1547467589221	Marionette	DEBUG	Setting recommended pref dom.max_chrome_script_run_time to 0
1547467589221	Marionette	DEBUG	Setting recommended pref dom.max_script_run_time to 0
1547467589221	Marionette	DEBUG	Setting recommended pref extensions.getAddons.cache.enabled to false
1547467589221	Marionette	DEBUG	Setting recommended pref extensions.webservice.discoverURL to http://%(server)s/dummy/discoveryURL
1547467589221	Marionette	DEBUG	Setting recommended pref network.http.prompt-temp-redirect to false
1547467589222	Marionette	DEBUG	Setting recommended pref network.http.speculative-parallel-limit to 0
1547467589222	Marionette	DEBUG	Setting recommended pref security.fileuri.strict_origin_policy to false
1547467589222	Marionette	DEBUG	Setting recommended pref security.notification_enable_delay to 0
1547467589222	Marionette	DEBUG	Setting recommended pref signon.autofillForms to false
1547467589222	Marionette	DEBUG	Setting recommended pref signon.rememberSignons to false
1547467589286	Marionette	INFO	Listening on port 57343
1547467589286	Marionette	DEBUG	Remote service is active
1547467589341	Marionette	DEBUG	Accepted connection 0 from 127.0.0.1:57357
1547467589346	Marionette	TRACE	0 -> [0,1,"WebDriver:NewSession",{"acceptInsecureCerts":true,"browserName":"firefox"}]
1547467589347	Marionette	WARN	TLS certificate errors will be ignored for this session
1547467589664	Marionette	DEBUG	[6442450945] Frame script loaded
1547467589667	Marionette	DEBUG	[6442450945] Frame script registered
1547467589674	Marionette	TRACE	0 <- [1,1,null,{"sessionId":"0d13aba6-6f14-485d-9493-dc5228d8c684","capabilities":{"browserName":"firefox","browserVersion":"63.0. ... AppData\\Local\\Temp\\rust_mozprofile.zphm23zCf0Vv","moz:useNonSpecCompliantPointerOrigin":false,"moz:webdriverClick":true}}]
1547467589691	Marionette	TRACE	0 -> [0,2,"WebDriver:Navigate",{"url":"https://www.pexels.com/search/texture/"}]
1547467589703	Marionette	DEBUG	[6442450945] Received DOM event beforeunload for about:blank
1547467597196	Marionette	DEBUG	[6442450945] Received DOM event pagehide for about:blank
1547467597197	Marionette	DEBUG	[6442450945] Received DOM event unload for about:blank
1547467598449	Marionette	DEBUG	[6442450945] Received DOM event DOMContentLoaded for https://www.pexels.com/search/texture/
1547467600365	Marionette	DEBUG	[6442450945] Received observer notification outer-window-destroyed
1547467600656	Marionette	DEBUG	[6442450945] Received DOM event pageshow for https://www.pexels.com/search/texture/
1547467600667	Marionette	TRACE	0 <- [1,2,null,{"value":null}]
1547467600683	Marionette	TRACE	0 -> [0,3,"WebDriver:FindElements",{"using":"css selector","value":".hide-featured-badge hide-photographer"}]
1547467600696	Marionette	TRACE	0 <- [1,3,null,[]]
1547467625568	mozrunner::runner	INFO	Running command: "C:\\Program Files\\Mozilla Firefox\\firefox.exe" "-marionette" "-foreground" "-no-remote" "-profile" "C:\\Users\\i331722\\AppData\\Local\\Temp\\rust_mozprofile.4VVLmXXc30oY"
1547467626485	Marionette	DEBUG	Received observer notification profile-after-change
1547467626592	Marionette	DEBUG	Received observer notification toplevel-window-ready
1547467626625	Marionette	DEBUG	Received observer notification command-line-startup
1547467626625	Marionette	DEBUG	Received observer notification nsPref:changed
1547467626625	Marionette	DEBUG	Init aborted (running=false, enabled=true, finalUIStartup=false)
1547467626859	Marionette	DEBUG	Received observer notification toplevel-window-ready
1547467628464	Marionette	DEBUG	Received observer notification sessionstore-windows-restored
1547467628464	Marionette	DEBUG	Waiting for delayed startup...
1547467628601	Marionette	DEBUG	Setting recommended pref app.update.auto to false
1547467628601	Marionette	DEBUG	Setting recommended pref security.turn_off_all_security_so_that_viruses_can_take_over_this_computer to true
1547467628602	Marionette	DEBUG	Setting recommended pref apz.content_response_timeout to 60000
1547467628603	Marionette	DEBUG	Setting recommended pref browser.download.panel.shown to true
1547467628603	Marionette	DEBUG	Setting recommended pref browser.pagethumbnails.capturing_disabled to true
1547467628604	Marionette	DEBUG	Setting recommended pref browser.search.update to false
1547467628604	Marionette	DEBUG	Setting recommended pref toolkit.cosmeticAnimations.enabled to false
1547467628604	Marionette	DEBUG	Setting recommended pref browser.tabs.disableBackgroundZombification to false
1547467628605	Marionette	DEBUG	Setting recommended pref browser.tabs.warnOnCloseOtherTabs to false
1547467628605	Marionette	DEBUG	Setting recommended pref browser.tabs.warnOnOpen to false
1547467628606	Marionette	DEBUG	Setting recommended pref browser.usedOnWindows10.introURL to 
1547467628606	Marionette	DEBUG	Setting recommended pref browser.urlbar.suggest.searches to false
1547467628606	Marionette	DEBUG	Setting recommended pref datareporting.policy.dataSubmissionPolicyAccepted to false
1547467628607	Marionette	DEBUG	Setting recommended pref dom.disable_beforeunload to true
1547467628607	Marionette	DEBUG	Setting recommended pref dom.disable_open_during_load to false
1547467628607	Marionette	DEBUG	Setting recommended pref dom.file.createInChild to true
1547467628607	Marionette	DEBUG	Setting recommended pref dom.max_chrome_script_run_time to 0
1547467628607	Marionette	DEBUG	Setting recommended pref dom.max_script_run_time to 0
1547467628607	Marionette	DEBUG	Setting recommended pref extensions.getAddons.cache.enabled to false
1547467628608	Marionette	DEBUG	Setting recommended pref extensions.webservice.discoverURL to http://%(server)s/dummy/discoveryURL
1547467628608	Marionette	DEBUG	Setting recommended pref network.http.prompt-temp-redirect to false
1547467628608	Marionette	DEBUG	Setting recommended pref network.http.speculative-parallel-limit to 0
1547467628608	Marionette	DEBUG	Setting recommended pref security.fileuri.strict_origin_policy to false
1547467628608	Marionette	DEBUG	Setting recommended pref security.notification_enable_delay to 0
1547467628609	Marionette	DEBUG	Setting recommended pref signon.autofillForms to false
1547467628609	Marionette	DEBUG	Setting recommended pref signon.rememberSignons to false
1547467628674	Marionette	INFO	Listening on port 57484
1547467628675	Marionette	DEBUG	Remote service is active
1547467628907	Marionette	DEBUG	Accepted connection 0 from 127.0.0.1:57496
1547467628914	Marionette	TRACE	0 -> [0,1,"WebDriver:NewSession",{"acceptInsecureCerts":true,"browserName":"firefox"}]
1547467628915	Marionette	WARN	TLS certificate errors will be ignored for this session
1547467629054	Marionette	DEBUG	[6442450945] Frame script loaded
1547467629063	Marionette	DEBUG	[6442450945] Frame script registered
1547467629073	Marionette	TRACE	0 <- [1,1,null,{"sessionId":"e2db2aad-b7f9-471e-a044-64c4edfbf659","capabilities":{"browserName":"firefox","browserVersion":"63.0. ... AppData\\Local\\Temp\\rust_mozprofile.4VVLmXXc30oY","moz:useNonSpecCompliantPointerOrigin":false,"moz:webdriverClick":true}}]
1547467629084	Marionette	TRACE	0 -> [0,2,"WebDriver:Navigate",{"url":"https://www.pexels.com/search/texture/"}]
1547467629097	Marionette	DEBUG	[6442450945] Received DOM event beforeunload for about:blank
1547467643688	Marionette	DEBUG	[6442450945] Received DOM event pagehide for about:blank
1547467644887	Marionette	DEBUG	[6442450945] Received DOM event DOMContentLoaded for https://www.pexels.com/search/texture/
1547467646995	Marionette	DEBUG	[6442450945] Received observer notification outer-window-destroyed
1547467651388	Marionette	DEBUG	[6442450945] Received DOM event pageshow for https://www.pexels.com/search/texture/
1547467651391	Marionette	TRACE	0 <- [1,2,null,{"value":null}]
1547467651397	Marionette	TRACE	0 -> [0,3,"WebDriver:FindElements",{"using":"css selector","value":".hide-featured-badge hide-photographer"}]
1547467651400	Marionette	TRACE	0 <- [1,3,null,[]]
1547467651953	Marionette	DEBUG	Closed connection 0
1547467689921	Marionette	DEBUG	Received observer notification xpcom-will-shutdown
1547467689921	Marionette	DEBUG	Resetting recommended pref app.update.auto
1547467689923	Marionette	DEBUG	Resetting recommended pref security.turn_off_all_security_so_that_viruses_can_take_over_this_computer
1547467689923	Marionette	DEBUG	Resetting recommended pref apz.content_response_timeout
1547467689924	Marionette	DEBUG	Resetting recommended pref browser.download.panel.shown
1547467689924	Marionette	DEBUG	Resetting recommended pref browser.pagethumbnails.capturing_disabled
1547467689925	Marionette	DEBUG	Resetting recommended pref browser.search.update
1547467689925	Marionette	DEBUG	Resetting recommended pref toolkit.cosmeticAnimations.enabled
1547467689927	Marionette	DEBUG	Resetting recommended pref browser.tabs.disableBackgroundZombification
1547467689927	Marionette	DEBUG	Resetting recommended pref browser.tabs.warnOnCloseOtherTabs
1547467689928	Marionette	DEBUG	Resetting recommended pref browser.tabs.warnOnOpen
1547467689929	Marionette	DEBUG	Resetting recommended pref browser.usedOnWindows10.introURL
1547467689929	Marionette	DEBUG	Resetting recommended pref browser.urlbar.suggest.searches
1547467689931	Marionette	DEBUG	Resetting recommended pref datareporting.policy.dataSubmissionPolicyAccepted
1547467689931	Marionette	DEBUG	Resetting recommended pref dom.disable_beforeunload
1547467689931	Marionette	DEBUG	Resetting recommended pref dom.disable_open_during_load
1547467689931	Marionette	DEBUG	Resetting recommended pref dom.file.createInChild
1547467689932	Marionette	DEBUG	Resetting recommended pref dom.max_chrome_script_run_time
1547467689932	Marionette	DEBUG	Resetting recommended pref dom.max_script_run_time
1547467689934	Marionette	DEBUG	Resetting recommended pref extensions.getAddons.cache.enabled
1547467689934	Marionette	DEBUG	Resetting recommended pref extensions.webservice.discoverURL
1547467689934	Marionette	DEBUG	Resetting recommended pref network.http.prompt-temp-redirect
1547467689934	Marionette	DEBUG	Resetting recommended pref network.http.speculative-parallel-limit
1547467689935	Marionette	DEBUG	Resetting recommended pref security.fileuri.strict_origin_policy
1547467689935	Marionette	DEBUG	Resetting recommended pref security.notification_enable_delay
1547467689935	Marionette	DEBUG	Resetting recommended pref signon.autofillForms
1547467689935	Marionette	DEBUG	Resetting recommended pref signon.rememberSignons
1547467689936	Marionette	INFO	Stopped listening on port 57484
1547467689936	Marionette	DEBUG	Remote service is inactive

###!!! [Child][RunMessage] Error: Channel closing: too late to send/recv, messages will be lost

1547467700978	mozrunner::runner	INFO	Running command: "C:\\Program Files\\Mozilla Firefox\\firefox.exe" "-marionette" "-foreground" "-no-remote" "-profile" "C:\\Users\\i331722\\AppData\\Local\\Temp\\rust_mozprofile.dZSUtQIe6HcO"
1547467701787	Marionette	DEBUG	Received observer notification profile-after-change
1547467702188	Marionette	DEBUG	Received observer notification toplevel-window-ready
1547467702250	Marionette	DEBUG	Received observer notification command-line-startup
1547467702250	Marionette	DEBUG	Received observer notification nsPref:changed
1547467702250	Marionette	DEBUG	Init aborted (running=false, enabled=true, finalUIStartup=false)
1547467702622	Marionette	DEBUG	Received observer notification toplevel-window-ready
1547467704335	Marionette	DEBUG	Received observer notification sessionstore-windows-restored
1547467704335	Marionette	DEBUG	Waiting for delayed startup...
1547467704497	Marionette	DEBUG	Setting recommended pref app.update.auto to false
1547467704498	Marionette	DEBUG	Setting recommended pref security.turn_off_all_security_so_that_viruses_can_take_over_this_computer to true
1547467704498	Marionette	DEBUG	Setting recommended pref apz.content_response_timeout to 60000
1547467704499	Marionette	DEBUG	Setting recommended pref browser.download.panel.shown to true
1547467704499	Marionette	DEBUG	Setting recommended pref browser.pagethumbnails.capturing_disabled to true
1547467704500	Marionette	DEBUG	Setting recommended pref browser.search.update to false
1547467704500	Marionette	DEBUG	Setting recommended pref toolkit.cosmeticAnimations.enabled to false
1547467704500	Marionette	DEBUG	Setting recommended pref browser.tabs.disableBackgroundZombification to false
1547467704501	Marionette	DEBUG	Setting recommended pref browser.tabs.warnOnCloseOtherTabs to false
1547467704501	Marionette	DEBUG	Setting recommended pref browser.tabs.warnOnOpen to false
1547467704501	Marionette	DEBUG	Setting recommended pref browser.usedOnWindows10.introURL to 
1547467704502	Marionette	DEBUG	Setting recommended pref browser.urlbar.suggest.searches to false
1547467704502	Marionette	DEBUG	Setting recommended pref datareporting.policy.dataSubmissionPolicyAccepted to false
1547467704503	Marionette	DEBUG	Setting recommended pref dom.disable_beforeunload to true
1547467704503	Marionette	DEBUG	Setting recommended pref dom.disable_open_during_load to false
1547467704503	Marionette	DEBUG	Setting recommended pref dom.file.createInChild to true
1547467704503	Marionette	DEBUG	Setting recommended pref dom.max_chrome_script_run_time to 0
1547467704503	Marionette	DEBUG	Setting recommended pref dom.max_script_run_time to 0
1547467704503	Marionette	DEBUG	Setting recommended pref extensions.getAddons.cache.enabled to false
1547467704504	Marionette	DEBUG	Setting recommended pref extensions.webservice.discoverURL to http://%(server)s/dummy/discoveryURL
1547467704504	Marionette	DEBUG	Setting recommended pref network.http.prompt-temp-redirect to false
1547467704504	Marionette	DEBUG	Setting recommended pref network.http.speculative-parallel-limit to 0
1547467704504	Marionette	DEBUG	Setting recommended pref security.fileuri.strict_origin_policy to false
1547467704504	Marionette	DEBUG	Setting recommended pref security.notification_enable_delay to 0
1547467704504	Marionette	DEBUG	Setting recommended pref signon.autofillForms to false
1547467704505	Marionette	DEBUG	Setting recommended pref signon.rememberSignons to false
1547467704582	Marionette	INFO	Listening on port 57696
1547467704582	Marionette	DEBUG	Remote service is active
1547467704917	Marionette	DEBUG	Accepted connection 0 from 127.0.0.1:57712
1547467704919	Marionette	TRACE	0 -> [0,1,"WebDriver:NewSession",{"acceptInsecureCerts":true,"browserName":"firefox"}]
1547467704920	Marionette	WARN	TLS certificate errors will be ignored for this session
1547467704977	Marionette	DEBUG	[6442450945] Frame script loaded
1547467704979	Marionette	DEBUG	[6442450945] Frame script registered
1547467704985	Marionette	TRACE	0 <- [1,1,null,{"sessionId":"915b1329-acf0-4caa-ae78-6d7b16085eae","capabilities":{"browserName":"firefox","browserVersion":"63.0. ... AppData\\Local\\Temp\\rust_mozprofile.dZSUtQIe6HcO","moz:useNonSpecCompliantPointerOrigin":false,"moz:webdriverClick":true}}]
1547467704995	Marionette	TRACE	0 -> [0,2,"WebDriver:Navigate",{"url":"https://www.pexels.com/search/texture/"}]
1547467705002	Marionette	DEBUG	[6442450945] Received DOM event beforeunload for about:blank
1547467722644	Marionette	DEBUG	[6442450945] Received DOM event pagehide for about:blank
1547467723596	Marionette	DEBUG	[6442450945] Received DOM event DOMContentLoaded for https://www.pexels.com/search/texture/
1547467726561	Marionette	DEBUG	[6442450945] Received observer notification outer-window-destroyed
1547467747985	Marionette	DEBUG	[6442450945] Received DOM event pageshow for https://www.pexels.com/search/texture/
1547467747988	Marionette	TRACE	0 <- [1,2,null,{"value":null}]
1547467748002	Marionette	TRACE	0 -> [0,3,"WebDriver:FindElements",{"using":"css selector","value":".hide-featured-badge hide-photographer"}]
1547467748006	Marionette	TRACE	0 <- [1,3,null,[]]
1547467748398	Marionette	DEBUG	Closed connection 0
1547467855895	Marionette	DEBUG	Received observer notification xpcom-will-shutdown
1547467855896	Marionette	DEBUG	Resetting recommended pref app.update.auto
1547467855897	Marionette	DEBUG	Resetting recommended pref security.turn_off_all_security_so_that_viruses_can_take_over_this_computer
1547467855897	Marionette	DEBUG	Resetting recommended pref apz.content_response_timeout
1547467855898	Marionette	DEBUG	Resetting recommended pref browser.download.panel.shown
1547467855898	Marionette	DEBUG	Resetting recommended pref browser.pagethumbnails.capturing_disabled
1547467855898	Marionette	DEBUG	Resetting recommended pref browser.search.update
1547467855898	Marionette	DEBUG	Resetting recommended pref toolkit.cosmeticAnimations.enabled
1547467855900	Marionette	DEBUG	Resetting recommended pref browser.tabs.disableBackgroundZombification
1547467855901	Marionette	DEBUG	Resetting recommended pref browser.tabs.warnOnCloseOtherTabs
1547467855901	Marionette	DEBUG	Resetting recommended pref browser.tabs.warnOnOpen
1547467855902	Marionette	DEBUG	Resetting recommended pref browser.usedOnWindows10.introURL
1547467855902	Marionette	DEBUG	Resetting recommended pref browser.urlbar.suggest.searches
1547467855904	Marionette	DEBUG	Resetting recommended pref datareporting.policy.dataSubmissionPolicyAccepted
1547467855904	Marionette	DEBUG	Resetting recommended pref dom.disable_beforeunload
1547467855904	Marionette	DEBUG	Resetting recommended pref dom.disable_open_during_load
1547467855904	Marionette	DEBUG	Resetting recommended pref dom.file.createInChild
1547467855905	Marionette	DEBUG	Resetting recommended pref dom.max_chrome_script_run_time
1547467855905	Marionette	DEBUG	Resetting recommended pref dom.max_script_run_time
1547467855906	Marionette	DEBUG	Resetting recommended pref extensions.getAddons.cache.enabled
1547467855907	Marionette	DEBUG	Resetting recommended pref extensions.webservice.discoverURL
1547467855907	Marionette	DEBUG	Resetting recommended pref network.http.prompt-temp-redirect
1547467855907	Marionette	DEBUG	Resetting recommended pref network.http.speculative-parallel-limit
1547467855908	Marionette	DEBUG	Resetting recommended pref security.fileuri.strict_origin_policy
1547467855908	Marionette	DEBUG	Resetting recommended pref security.notification_enable_delay
1547467855908	Marionette	DEBUG	Resetting recommended pref signon.autofillForms
1547467855909	Marionette	DEBUG	Resetting recommended pref signon.rememberSignons
1547467855909	Marionette	INFO	Stopped listening on port 57696
1547467855909	Marionette	DEBUG	Remote service is inactive

###!!! [Child][MessageChannel::SendAndWait] Error: Channel error: cannot send/recv

nette	DEBUG	Setting recommended pref extensions.getAddons.cache.enabled to false
1547467763975	Marionette	DEBUG	Setting recommended pref extensions.webservice.discoverURL to http://%(server)s/dummy/discoveryURL
1547467763975	Marionette	DEBUG	Setting recommended pref network.http.prompt-temp-redirect to false
1547467763975	Marionette	DEBUG	Setting recommended pref network.http.speculative-parallel-limit to 0
1547467763975	Marionette	DEBUG	Setting recommended pref security.fileuri.strict_origin_policy to false
1547467763975	Marionette	DEBUG	Setting recommended pref security.notification_enable_delay to 0
1547467763976	Marionette	DEBUG	Setting recommended pref signon.autofillForms to false
1547467763976	Marionette	DEBUG	Setting recommended pref signon.rememberSignons to false
1547467764046	Marionette	INFO	Listening on port 57869
1547467764046	Marionette	DEBUG	Remote service is active
1547467764217	Marionette	DEBUG	Accepted connection 0 from 127.0.0.1:57883
1547467764220	Marionette	TRACE	0 -> [0,1,"WebDriver:NewSession",{"acceptInsecureCerts":true,"browserName":"firefox"}]
1547467764221	Marionette	WARN	TLS certificate errors will be ignored for this session
1547467764606	Marionette	DEBUG	[6442450945] Frame script loaded
1547467764609	Marionette	DEBUG	[6442450945] Frame script registered
1547467764614	Marionette	TRACE	0 <- [1,1,null,{"sessionId":"5d8aa379-db26-404c-b0bb-38d25de10ba3","capabilities":{"browserName":"firefox","browserVersion":"63.0. ... AppData\\Local\\Temp\\rust_mozprofile.LjG9tzUor1ZN","moz:useNonSpecCompliantPointerOrigin":false,"moz:webdriverClick":true}}]
1547467764624	Marionette	TRACE	0 -> [0,2,"WebDriver:Navigate",{"url":"https://www.pexels.com/search/texture/"}]
1547467764638	Marionette	DEBUG	[6442450945] Received DOM event beforeunload for about:blank
1547467780696	Marionette	DEBUG	[6442450945] Received DOM event pagehide for about:blank
1547467780696	Marionette	DEBUG	[6442450945] Received DOM event unload for about:blank
1547467781649	Marionette	DEBUG	[6442450945] Received DOM event DOMContentLoaded for https://www.pexels.com/search/texture/
1547467783371	Marionette	DEBUG	[6442450945] Received observer notification outer-window-destroyed
1547467783980	Marionette	DEBUG	[6442450945] Received DOM event pageshow for https://www.pexels.com/search/texture/
1547467783982	Marionette	TRACE	0 <- [1,2,null,{"value":null}]
1547467783995	Marionette	TRACE	0 -> [0,3,"WebDriver:FindElements",{"using":"css selector","value":".hide-featured-badge hide-photographer"}]
1547467784000	Marionette	TRACE	0 <- [1,3,null,[]]
1547467784283	Marionette	DEBUG	Closed connection 0
1547467817820	mozrunner::runner	INFO	Running command: "C:\\Program Files\\Mozilla Firefox\\firefox.exe" "-marionette" "-foreground" "-no-remote" "-profile" "C:\\Users\\i331722\\AppData\\Local\\Temp\\rust_mozprofile.hjzhzWpBK8f8"
1547467818956	Marionette	DEBUG	Received observer notification profile-after-change
1547467819073	Marionette	DEBUG	Received observer notification toplevel-window-ready
1547467819113	Marionette	DEBUG	Received observer notification command-line-startup
1547467819113	Marionette	DEBUG	Received observer notification nsPref:changed
1547467819113	Marionette	DEBUG	Init aborted (running=false, enabled=true, finalUIStartup=false)
1547467819324	Marionette	DEBUG	Received observer notification toplevel-window-ready
1547467820770	Marionette	DEBUG	Received observer notification sessionstore-windows-restored
1547467820770	Marionette	DEBUG	Waiting for delayed startup...
1547467820967	Marionette	DEBUG	Setting recommended pref app.update.auto to false
1547467820967	Marionette	DEBUG	Setting recommended pref security.turn_off_all_security_so_that_viruses_can_take_over_this_computer to true
1547467820968	Marionette	DEBUG	Setting recommended pref apz.content_response_timeout to 60000
1547467820969	Marionette	DEBUG	Setting recommended pref browser.download.panel.shown to true
1547467820969	Marionette	DEBUG	Setting recommended pref browser.pagethumbnails.capturing_disabled to true
1547467820970	Marionette	DEBUG	Setting recommended pref browser.search.update to false
1547467820971	Marionette	DEBUG	Setting recommended pref toolkit.cosmeticAnimations.enabled to false
1547467820971	Marionette	DEBUG	Setting recommended pref browser.tabs.disableBackgroundZombification to false
1547467820971	Marionette	DEBUG	Setting recommended pref browser.tabs.warnOnCloseOtherTabs to false
1547467820971	Marionette	DEBUG	Setting recommended pref browser.tabs.warnOnOpen to false
1547467820972	Marionette	DEBUG	Setting recommended pref browser.usedOnWindows10.introURL to 
1547467820972	Marionette	DEBUG	Setting recommended pref browser.urlbar.suggest.searches to false
1547467820973	Marionette	DEBUG	Setting recommended pref datareporting.policy.dataSubmissionPolicyAccepted to false
1547467820973	Marionette	DEBUG	Setting recommended pref dom.disable_beforeunload to true
1547467820973	Marionette	DEBUG	Setting recommended pref dom.disable_open_during_load to false
1547467820973	Marionette	DEBUG	Setting recommended pref dom.file.createInChild to true
1547467820973	Marionette	DEBUG	Setting recommended pref dom.max_chrome_script_run_time to 0
1547467820974	Marionette	DEBUG	Setting recommended pref dom.max_script_run_time to 0
1547467820974	Marionette	DEBUG	Setting recommended pref extensions.getAddons.cache.enabled to false
1547467820974	Marionette	DEBUG	Setting recommended pref extensions.webservice.discoverURL to http://%(server)s/dummy/discoveryURL
1547467820974	Marionette	DEBUG	Setting recommended pref network.http.prompt-temp-redirect to false
1547467820975	Marionette	DEBUG	Setting recommended pref network.http.speculative-parallel-limit to 0
1547467820975	Marionette	DEBUG	Setting recommended pref security.fileuri.strict_origin_policy to false
1547467820976	Marionette	DEBUG	Setting recommended pref security.notification_enable_delay to 0
1547467820976	Marionette	DEBUG	Setting recommended pref signon.autofillForms to false
1547467820976	Marionette	DEBUG	Setting recommended pref signon.rememberSignons to false
1547467821052	Marionette	INFO	Listening on port 58033
1547467821053	Marionette	DEBUG	Remote service is active
1547467821195	Marionette	DEBUG	Accepted connection 0 from 127.0.0.1:58046
1547467821198	Marionette	TRACE	0 -> [0,1,"WebDriver:NewSession",{"acceptInsecureCerts":true,"browserName":"firefox"}]
1547467821199	Marionette	WARN	TLS certificate errors will be ignored for this session
1547467821319	Marionette	DEBUG	[6442450945] Frame script loaded
1547467821335	Marionette	DEBUG	[6442450945] Frame script registered
1547467821343	Marionette	TRACE	0 <- [1,1,null,{"sessionId":"93d8a8fd-fdb7-4d03-8c2a-7cbd1d7c9446","capabilities":{"browserName":"firefox","browserVersion":"63.0. ... AppData\\Local\\Temp\\rust_mozprofile.hjzhzWpBK8f8","moz:useNonSpecCompliantPointerOrigin":false,"moz:webdriverClick":true}}]
1547467821357	Marionette	TRACE	0 -> [0,2,"WebDriver:Navigate",{"url":"https://www.pexels.com/search/texture/"}]
1547467821369	Marionette	DEBUG	[6442450945] Received DOM event beforeunload for about:blank
1547467834748	Marionette	DEBUG	[6442450945] Received DOM event pagehide for about:blank
1547467835351	Marionette	DEBUG	[6442450945] Received DOM event DOMContentLoaded for https://www.pexels.com/search/texture/
1547467837947	Marionette	DEBUG	[6442450945] Received DOM event pageshow for https://www.pexels.com/search/texture/
1547467837949	Marionette	TRACE	0 <- [1,2,null,{"value":null}]
1547467837954	Marionette	TRACE	0 -> [0,3,"WebDriver:FindElements",{"using":"css selector","value":".hide-featured-badge hide-photographer"}]
1547467837960	Marionette	TRACE	0 <- [1,3,null,[]]
1547467838343	Marionette	DEBUG	Closed connection 0
console.error: BroadcastService: 
  receivedBroadcastMessage: handler for
  remote-settings/monitor_changes
  threw error:
  Message: Error: Polling for changes failed: NetworkError when attempting to fetch resource..
  Stack:
    remoteSettingsFunction/remoteSettings.pollChanges@resource://services-settings/remote-settings.js:721:13

console.error: "Tried to send a 'tabDetached' event on an already destroyed actor 'frameTarget'"
1547469828628	Marionette	DEBUG	Received observer notification xpcom-will-shutdown
1547469828628	Marionette	DEBUG	Resetting recommended pref app.update.auto
1547469828630	Marionette	DEBUG	Resetting recommended pref security.turn_off_all_security_so_that_viruses_can_take_over_this_computer
1547469828630	Marionette	DEBUG	Resetting recommended pref apz.content_response_timeout
1547469828630	Marionette	DEBUG	Resetting recommended pref browser.download.panel.shown
1547469828630	Marionette	DEBUG	Resetting recommended pref browser.pagethumbnails.capturing_disabled
1547469828631	Marionette	DEBUG	Resetting recommended pref browser.search.update
1547469828631	Marionette	DEBUG	Resetting recommended pref toolkit.cosmeticAnimations.enabled
1547469828632	Marionette	DEBUG	Resetting recommended pref browser.tabs.disableBackgroundZombification
1547469828633	Marionette	DEBUG	Resetting recommended pref browser.tabs.warnOnCloseOtherTabs
1547469828633	Marionette	DEBUG	Resetting recommended pref browser.tabs.warnOnOpen
1547469828634	Marionette	DEBUG	Resetting recommended pref browser.usedOnWindows10.introURL
1547469828634	Marionette	DEBUG	Resetting recommended pref browser.urlbar.suggest.searches
1547469828636	Marionette	DEBUG	Resetting recommended pref datareporting.policy.dataSubmissionPolicyAccepted
1547469828636	Marionette	DEBUG	Resetting recommended pref dom.disable_beforeunload
1547469828637	Marionette	DEBUG	Resetting recommended pref dom.disable_open_during_load
1547469828637	Marionette	DEBUG	Resetting recommended pref dom.file.createInChild
1547469828637	Marionette	DEBUG	Resetting recommended pref dom.max_chrome_script_run_time
1547469828637	Marionette	DEBUG	Resetting recommended pref dom.max_script_run_time
1547469828639	Marionette	DEBUG	Resetting recommended pref extensions.getAddons.cache.enabled
1547469828639	Marionette	DEBUG	Resetting recommended pref extensions.webservice.discoverURL
1547469828639	Marionette	DEBUG	Resetting recommended pref network.http.prompt-temp-redirect
1547469828639	Marionette	DEBUG	Resetting recommended pref network.http.speculative-parallel-limit
1547469828639	Marionette	DEBUG	Resetting recommended pref security.fileuri.strict_origin_policy
1547469828640	Marionette	DEBUG	Resetting recommended pref security.notification_enable_delay
1547469828640	Marionette	DEBUG	Resetting recommended pref signon.autofillForms
1547469828640	Marionette	DEBUG	Resetting recommended pref signon.rememberSignons
1547469828640	Marionette	INFO	Stopped listening on port 58033
1547469828640	Marionette	DEBUG	Remote service is inactive

###!!! [Child][RunMessage] Error: Channel closing: too late to send/recv, messages will be lost


###!!! [Child][MessageChannel::SendAndWait] Error: Channel error: cannot send/recv

